Phân tích và so sánh các phương pháp giảm chiều và phân loại trong nhận diện cơn động kinh từ EEG ngắn hạn
…
## 28  105.546
## 29   12.901
## 30    6.034
## 31   14.684
## 32  848.171
## 33   56.967
## 34    3.236
## 35    4.830
## 36  534.730
## 37   86.986
## 38    3.205
## 39    4.755
## 
## $data
## # A tibble: 9,200 × 39
##       mean     std    var     min     max   skew kurtosis     rms zero_crossings
##      <dbl>   <dbl>  <dbl>   <dbl>   <dbl>  <dbl>    <dbl>   <dbl>          <dbl>
##  1 -0.281  -0.0473 -0.255 -0.0992  0.0235 -0.300   0.0600 -0.0946         0.926 
##  2 -1.11   -0.459  -0.365  0.377  -0.499   0.902  -0.206  -0.376         -0.471 
##  3 -1.87   -0.684  -0.390  0.442  -0.857   0.682   0.185  -0.309         -2.00  
##  4  0.0327 -0.502  -0.371  0.448  -0.506  -0.754  -0.215  -0.563          2.45  
##  5  0.679  -0.421  -0.358  0.485  -0.352  -0.134  -0.513  -0.468          0.0369
##  6  0.664  -0.293  -0.330  0.343  -0.285  -0.104  -0.562  -0.344          1.05  
##  7 -0.759  -0.515  -0.373  0.402  -0.643  -1.19   -0.315  -0.481         -0.853 
##  8  0.359  -0.566  -0.380  0.494  -0.528  -0.551   0.245  -0.630          2.20  
##  9 -0.482  -0.532  -0.376  0.331  -0.643  -0.981   0.171  -0.540          1.82  
## 10 -1.60   -0.157  -0.292 -0.151  -0.419  -1.54    0.763  -0.0595        -0.471 
## # ℹ 9,190 more rows
## # ℹ 30 more variables: abs_max <dbl>, crest_factor <dbl>, margin_factor <dbl>,
## #   shape_factor <dbl>, impulse_factor <dbl>, delta_power <dbl>,
## #   theta_power <dbl>, alpha_power <dbl>, beta_power <dbl>, gamma_power <dbl>,
## #   level_1_energy <dbl>, level_1_std <dbl>, level_1_skew <dbl>,
## #   level_1_kurt <dbl>, level_2_energy <dbl>, level_2_std <dbl>,
## #   level_2_skew <dbl>, level_2_kurt <dbl>, level_3_energy <dbl>, …
## 
## $subset
…
## 28    7.903
## 29    3.561
## 30    3.465
## 31    6.708
## 32    8.826
## 33    3.489
## 34    2.929
## 35    4.125
## 36   13.506
## 37    3.730
## 38    3.674
## 39    6.729
## 
## $data
## # A tibble: 2,300 × 39
##       mean   std     var    min     max    skew kurtosis   rms zero_crossings
##      <dbl> <dbl>   <dbl>  <dbl>   <dbl>   <dbl>    <dbl> <dbl>          <dbl>
##  1  1.10   2.96   2.98   -4.51   1.02   -2.57     1.16   2.94         -0.980 
##  2 -0.732  0.400 -0.0451 -0.465  0.690  -0.0915  -0.0586 0.373        -0.471 
##  3  1.57   1.56   0.946  -0.496  2.16    0.914   -0.471  1.55         -0.0902
##  4  0.989  3.65   4.33   -2.97   1.90   -1.19    -0.560  3.64         -0.726 
##  5 -1.83   0.299 -0.101  -0.920 -0.0783 -1.98     1.61   0.369        -1.23  
##  6  0.551  0.285 -0.108  -0.225  0.0762 -0.818   -0.494  0.233        -0.217 
##  7  1.63   2.66   2.47   -2.35   3.30    0.266    0.237  2.65          0.672 
##  8 -1.34   1.00   0.385  -0.837  0.539  -0.351   -0.886  1.00         -0.471 
##  9  0.0997 0.590  0.0725 -0.502  1.48    2.20     2.30   0.539        -0.344 
## 10  0.114  3.45   3.91   -3.55   3.35   -0.915    0.157  3.43          1.18  
## # ℹ 2,290 more rows
## # ℹ 30 more variables: abs_max <dbl>, crest_factor <dbl>, margin_factor <dbl>,
## #   shape_factor <dbl>, impulse_factor <dbl>, delta_power <dbl>,
## #   theta_power <dbl>, alpha_power <dbl>, beta_power <dbl>, gamma_power <dbl>,
## #   level_1_energy <dbl>, level_1_std <dbl>, level_1_skew <dbl>,
## #   level_1_kurt <dbl>, level_2_energy <dbl>, level_2_std <dbl>,
## #   level_2_skew <dbl>, level_2_kurt <dbl>, level_3_energy <dbl>, …
## 
## $subset
…
